1,1,2,1
1,3,4,2
1,5,6,1
1,7,8,2
1,9,10,1
1,11,7,1
1,6,12,2
1,9,3,1
1,13,9,2
1,14,15,1
2,4,16,2
2,17,12,2
2,17,18,2
2,4,8,2
2,19,16,1
2,20,11,2
2,10,21,2
2,14,22,1
2,6,20,1
2,3,20,1
3,9,17,1
3,1,19,1
3,23,20,1
3,12,24,2
3,25,23,1
3,23,5,1
3,7,2,2
3,24,19,1
3,17,26,2
3,26,10,2
4,25,27,1
4,13,21,1
4,13,3,1
4,23,10,1
4,9,28,2
4,20,7,1
4,10,17,2
4,22,23,2
4,28,11,1
4,22,7,1
5,16,14,2
5,29,11,1
5,1,26,1
5,28,13,1
5,27,7,2
5,30,21,1
5,28,13,1
5,12,14,2
5,2,16,1
5,30,27,2
6,23,7,1
6,20,21,2
6,26,19,2
6,17,30,2
6,15,20,1
6,17,3,2
6,19,3,2
6,27,17,1
6,6,18,2
6,13,4,2
7,4,7,1
7,1,5,2
7,3,16,1
7,25,23,1
7,29,21,2
7,6,17,1
7,24,5,2
7,15,17,1
7,11,1,2
7,24,26,1
8,2,17,2
8,4,18,1
8,5,10,1
8,9,11,1
8,2,21,2
8,8,26,2
8,10,11,1
8,9,12,1
8,3,22,1
8,10,28,2
9,14,2,1
9,6,5,2
9,22,18,2
9,8,3,1
9,30,8,1
9,15,26,2
9,25,28,1
9,17,30,2
9,5,3,1
9,22,9,1
10,11,23,2
10,15,1,2
10,8,18,1
10,29,5,2
10,23,24,2
10,28,25,2
10,8,24,2
10,16,6,1
10,21,20,2
10,14,9,1
11,17,13,1
11,18,5,1
11,23,24,2
11,29,4,2
11,26,22,1
11,13,18,2
11,17,4,2
11,10,24,2
11,8,14,2
11,13,25,2
12,4,12,2
12,25,23,1
12,28,26,1
12,9,27,2
12,4,3,2
12,10,25,2
12,22,9,1
12,16,21,2
12,3,5,1
12,6,1,2
13,23,11,1
13,12,6,1
13,5,10,1
13,25,16,2
13,20,5,2
13,30,10,2
13,4,24,2
13,24,15,2
13,9,21,2
13,9,11,1
14,25,8,1
14,15,14,2
14,23,3,1
14,6,11,2
14,7,11,2
14,22,5,2
14,3,24,1
14,27,13,2
14,30,4,2
14,8,20,1
15,18,7,2
15,1,7,1
15,7,4,2
15,4,7,1
15,7,18,1
15,14,21,2
15,2,22,1
15,11,1,2
15,18,12,2
15,21,1,1
16,29,24,2
16,15,18,1
16,18,7,2
16,6,13,2
16,24,17,1
16,3,9,1
16,8,24,2
16,14,7,1
16,17,10,2
16,18,28,2
17,9,13,1
17,11,17,1
17,21,28,2
17,7,1,2
17,13,29,2
17,21,8,2
17,13,11,2
17,20,22,2
17,9,7,1
17,23,15,1
18,24,16,1
18,29,9,1
18,25,10,1
18,19,7,1
18,13,24,2
18,27,30,1
18,26,29,1
18,3,20,1
18,24,13,1
18,3,29,2
19,28,2,1
19,21,8,1
19,29,24,2
19,10,11,1
19,17,27,2
19,30,17,1
19,4,27,2
19,7,30,2
19,26,10,1
19,1,4,2
20,5,10,2
20,29,19,1
20,7,20,1
20,26,19,1
20,1,6,1
20,14,17,1
20,6,14,2
20,27,14,2
20,18,21,1
20,19,23,2
21,13,28,2
21,5,15,1
21,11,19,2
21,24,16,1
21,5,11,1
21,3,18,2
21,12,11,1
21,24,3,1
21,14,4,1
21,16,2,2
22,24,3,1
22,4,3,1
22,29,20,1
22,18,20,1
22,8,18,2
22,6,1,2
22,19,14,2
22,26,8,2
22,16,12,2
22,27,7,1
23,27,16,1
23,23,24,2
23,30,12,2
23,20,9,2
23,9,27,2
23,29,28,1
23,21,2,2
23,15,5,2
23,10,13,1
23,28,16,1
24,21,8,1
24,13,23,2
24,18,12,2
24,17,19,1
24,7,24,2
24,30,13,2
24,21,24,2
24,26,10,1
24,22,4,2
24,27,9,1
25,20,22,2
25,25,12,2
25,18,7,2
25,12,26,1
25,13,15,2
25,11,29,2
25,14,2,1
25,7,12,2
25,25,8,1
25,17,9,2
26,24,14,1
26,7,21,2
26,29,25,2
26,7,30,2
26,4,10,1
26,12,6,1
26,10,30,2
26,4,9,1
26,21,1,1
26,9,17,1
27,14,18,2
27,20,25,2
27,9,27,1
27,22,7,1
27,9,16,2
27,8,10,1
27,13,20,2
27,28,16,1
27,9,14,1
27,25,19,2
28,26,11,1
28,6,12,2
28,18,4,2
28,7,1,2
28,19,8,1
28,1,14,2
28,4,9,1
28,8,28,2
28,6,13,2
28,3,17,2
29,13,5,2
29,11,30,1
29,3,19,1
29,23,25,2
29,15,20,1
29,24,27,1
29,15,18,1
29,29,8,2
29,24,13,2
29,9,28,2
30,12,26,2
30,20,15,1
30,25,1,1
30,5,2,2
30,20,6,1
30,21,20,1
30,15,16,1
30,30,7,2
30,17,18,2
30,24,14,1
31,10,16,2
31,3,28,2
31,2,5,2
31,27,28,2
31,26,27,2
31,17,26,2
31,11,1,1
31,22,23,2
31,13,24,1
31,13,15,1
32,25,2,1
32,4,28,1
32,19,26,1
32,30,8,1
32,18,30,2
32,1,27,2
32,14,28,1
32,14,18,1
32,12,14,1
32,20,22,2
33,20,9,1
33,21,13,2
33,26,1,2
33,23,19,2
33,18,13,2
33,12,19,2
33,21,5,2
33,11,2,1
33,5,13,2
33,14,17,2
34,23,30,1
34,9,6,2
34,11,27,2
34,29,2,1
34,9,3,2
34,16,14,2
34,14,15,1
34,17,19,2
34,8,4,2
34,13,26,1
35,3,23,1
35,5,8,1
35,18,2,2
35,30,19,2
35,4,10,1
35,8,9,1
35,1,12,2
35,19,24,1
35,22,3,2
35,26,22,2
36,3,10,1
36,28,13,2
36,11,26,1
36,17,24,2
36,11,17,1
36,5,17,1
36,28,15,2
36,6,4,2
36,10,24,2
36,9,14,1
37,20,9,1
37,25,17,1
37,13,6,1
37,17,1,2
37,22,24,2
37,19,3,1
37,18,14,2
37,17,30,2
37,28,1,2
37,28,7,2
38,24,6,1
38,21,27,1
38,8,28,1
38,21,4,1
38,21,20,1
38,9,24,2
38,29,13,2
38,11,6,2
38,14,4,2
38,17,28,2
39,11,17,2
39,6,13,2
39,18,1,2
39,13,10,1
39,28,4,2
39,17,13,2
39,14,24,2
39,8,13,2
39,2,26,2
39,27,4,2
40,23,8,1
40,18,17,1
40,23,15,1
40,23,28,2
40,23,28,2
40,25,11,1
40,11,13,1
40,23,5,2
40,2,6,2
40,1,3,1
41,20,28,2
41,29,22,1
41,26,14,2
41,12,15,1
41,15,8,2
41,8,4,2
41,9,6,1
41,8,17,1
41,21,14,1
41,12,6,1
42,17,11,1
42,6,25,2
42,24,14,1
42,10,26,1
42,5,10,2
42,21,11,1
42,15,12,2
42,30,7,2
42,27,4,1
42,22,15,1
43,4,8,2
43,14,29,1
43,3,19,1
43,11,30,1
43,7,27,2
43,7,10,2
43,23,11,1
43,25,16,1
43,29,30,1
43,10,14,2
44,12,16,1
44,23,2,1
44,28,21,2
44,4,6,1
44,13,16,2
44,5,25,1
44,20,13,2
44,7,17,2
44,16,1,1
44,19,13,1
45,5,3,2
45,10,4,1
45,20,28,2
45,24,10,1
45,5,30,1
45,5,8,2
45,1,17,1
45,19,24,2
45,9,8,2
45,11,17,1
46,5,23,1
46,24,14,2
46,30,24,1
46,4,18,1
46,19,11,1
46,30,6,1
46,12,8,1
46,28,10,1
46,24,18,2
46,21,26,1
47,11,15,1
47,22,9,2
47,21,1,1
47,6,26,1
47,29,17,1
47,2,25,2
47,8,30,1
47,28,29,1
47,25,21,1
47,29,8,1
48,3,14,1
48,20,27,2
48,25,1,1
48,11,23,2
48,4,3,2
48,18,25,2
48,2,27,2
48,6,15,2
48,10,2,1
48,25,1,1
49,15,21,2
49,22,29,2
49,13,21,2
49,7,6,1
49,20,10,2
49,1,24,2
49,17,5,2
49,4,24,2
49,22,11,2
49,26,13,2
50,23,19,2
50,8,17,1
50,16,20,1
50,29,12,2
50,21,6,1
50,18,22,1
50,7,13,2
50,5,11,1
50,26,27,2
50,1,11,2
51,29,11,1
51,10,5,2
51,26,22,2
51,14,19,2
51,30,4,1
51,25,8,1
51,9,25,2
51,25,2,1
51,19,8,1
51,4,26,1
52,19,20,1
52,18,15,1
52,27,16,1
52,20,9,2
52,19,16,1
52,4,7,1
52,8,5,2
52,12,1,1
52,29,28,1
52,1,8,1
53,5,25,2
53,28,6,1
53,14,8,1
53,14,7,1
53,7,9,2
53,21,18,1
53,28,22,1
53,28,8,1
53,13,1,2
53,23,2,1
54,29,30,2
54,3,23,2
54,1,7,1
54,7,1,2
54,4,3,1
54,12,2,1
54,17,25,2
54,27,2,1
54,10,23,1
54,16,7,1
55,8,5,1
55,27,29,1
55,23,9,1
55,7,19,1
55,24,21,1
55,18,27,2
55,23,9,1
55,10,15,1
55,24,5,1
55,25,13,1
56,16,18,2
56,21,18,2
56,16,29,2
56,28,29,1
56,17,11,2
56,21,26,1
56,9,3,1
56,25,10,1
56,12,16,1
56,20,10,2
57,26,24,2
57,9,2,1
57,22,2,1
57,14,4,1
57,19,15,2
57,23,15,1
57,27,10,1
57,28,15,1
57,6,28,2
57,26,7,2
58,21,14,1
58,21,15,1
58,17,8,2
58,8,14,1
58,18,2,1
58,13,22,1
58,16,8,1
58,27,11,1
58,16,6,1
58,26,28,2
